____ ____ ____ _  _ _ ____ ____    ____ ____ ____ _ ____ ___ ____ _   _
[__  |___ |__/ |  | | |    |___ __ |__/ |___ | __ | [__   |  |__/  \_/
___] |___ |  \  \/  | |___ |___    |  \ |___ |__] | ___]  |  |  \   |

${application.title} ${application.version}